id,nip,sekolah_id,username,fullname,hp,email,email_verified_at,password,api_token,level,remember_token,created_at,updated_at,jk,role
276,001,20539749,ulfa.anisa,ULFA ANISA. S.Sos,NULL,ulfa.anisa@jurnal.plus,NULL,12345,,staf,NULL,,,P,staf
277,002,20539749,rika,RIKA ASTUTI S.Pd,NULL,rika@jurnal.plus,NULL,12345,,staf,NULL,,,P,staf
278,003,20539749,handi,HANDI CAHYADI A.Md,NULL,handi@jurnal.plus,NULL,12345,,staf,NULL,,,L,staf
279,004,20539749,putriana,PUTRIANA,NULL,putriana@jurnal.plus,NULL,12345,,staf,NULL,,,P,staf
280,005,20539749,riyanto,RIYANTO,NULL,riyanto@jurnal.plus,NULL,12345,,staf,NULL,,,L,staf
281,006,20539749,imam,IMAM ROMLI,NULL,imam@jurnal.plus,NULL,12345,,staf,NULL,,,L,staf
282,007,20539749,m.aminudin,M.AMINUDIN,NULL,m.aminudin@jurnal.plus,NULL,12345,,staf,NULL,,,L,staf
283,008,20539749,luqman,LUQMAN HAKIM,NULL,luqman@jurnal.plus,NULL,12345,,staf,NULL,,,L,staf
284,009,20539749,achmad,ACHMAD HARMONO,NULL,achmad@jurnal.plus,NULL,12345,,staf,NULL,,,L,staf
285,010,20539749,sudarmadji,SUDARMADJI,NULL,sudarmadji@jurnal.plus,NULL,12345,,staf,NULL,,,L,staf
286,011,20539749,yazid,M. YAZID AL ANSORI S.Sos,NULL,yazid@jurnal.plus,NULL,12345,,staf,NULL,,,L,staf
287,012,20539749,sunarto,SUNARTO,NULL,sunarto@jurnal.plus,NULL,12345,,staf,NULL,,,L,staf
288,013,20539749,rohmat,ROHMAT HIDAYAT,NULL,rohmat@jurnal.plus,NULL,12345,,staf,NULL,,,L,staf
289,014,20539749,aditryanto,ADI TRYANTO,NULL,aditryanto@jurnal.plus,NULL,12345,,staf,NULL,,,L,staf
290,015,20539749,nikmatul,NIKMATUL KHOIRIYAH,NULL,nikmatul@jurnal.plus,NULL,12345,,staf,NULL,,,P,staf
291,016,20539749,tito,Candra Tito Hernawan,NULL,tito@jurnal.plus,NULL,12345,,staf,NULL,,,L,staf
292,017,20539749,aristanti,Aristanti Tri Wahyuni,NULL,aristanti@jurnal.plus,NULL,12345,,staf,NULL,,,P,staf
293,018,20539749,kiki,Kiki Priyo Handoko,NULL,kiki@jurnal.plus,NULL,12345,,staf,NULL,,,L,staf
294,019,20539749,bambang,Bambang Sugiono,NULL,bambang@jurnal.plus,NULL,12345,,staf,NULL,,,L,staf
295,020,20539749,saipul,Saipul Anwar,NULL,saipul@jurnal.plus,NULL,12345,,staf,NULL,,,L,staf
296,021,20539749,solikin,Solikin,NULL,solikin@jurnal.plus,NULL,12345,,staf,NULL,,,L,staf
297,022,20539749,supriyono,Muhammad  Supriyono,NULL,supriyono@jurnal.plus,NULL,12345,,staf,NULL,,,L,staf
298,024,20539749,ardiansyah,M. Ardiansyah,NULL,ardiansyah@jurnal.plus,NULL,12345,,staf,NULL,,,L,staf
299,025,20539749,abdulghofur,M. Abdul Ghofur,NULL,abdulghofur@jurnal.plus,NULL,12345,,staf,NULL,,,L,staf
300,026,20539749,fiko,Fiko Syahputra,NULL,fiko@jurnal.plus,NULL,12345,,staf,NULL,,,L,staf
301,027,20539749,sunardi,Sunardi,NULL,sunardi@jurnal.plus,NULL,12345,,staf,NULL,,,L,staf
302,028,20539749,sunarso,Sunarso,NULL,sunarso@jurnal.plus,NULL,12345,,staf,NULL,,,L,staf
303,029,20539749,thoha,Thoha,NULL,thoha@jurnal.plus,NULL,12345,,staf,NULL,,,L,staf
304,037,20539749,anis,"ANIS NURYATI S, S.Si",NULL,anis@jurnal.plus,NULL,12345,,guru,NULL,,,P,guru
305,038,20539749,andi,"ANDI ASMARAWAN, SE",NULL,andi@jurnal.plus,NULL,12345,,guru,NULL,,,L,guru
306,039,20539749,sugeng,"SUGENG PRAMONO, S.Pd",NULL,sugeng@jurnal.plus,NULL,12345,,guru,NULL,,,L,guru
307,040,20539749,lies,"LIES ZUBARKAH, S.Pd",NULL,lies@jurnal.plus,NULL,12345,,guru,NULL,,,P,guru
308,041,20539749,syaifudin,"SYAIFUDIN, S.Si",NULL,syaifudin@jurnal.plus,NULL,12345,,guru,NULL,,,L,guru
309,042,20539749,mutmainah,"MUTMAINAH, S.Pd",NULL,mutmainah@jurnal.plus,NULL,12345,,guru,NULL,,,P,guru
310,043,20539749,ira,"IRA TRISNAWATI, SPd",NULL,ira@jurnal.plus,NULL,12345,,guru,NULL,,,P,guru
311,044,20539749,nanangt,"NANANG TRIWAHYUDI, ST",NULL,nanangt@jurnal.plus,NULL,12345,,guru,NULL,,,L,guru
312,045,20539749,stefanus,"STEFANUS L, S.TL",NULL,stefanus@jurnal.plus,NULL,12345,,guru,NULL,,,L,guru
313,046,20539749,yuli,"YULI SETYAWAN, S.Pd",NULL,yuli@jurnal.plus,NULL,12345,,guru,NULL,,,L,guru
314,047,20539749,syaifularief,"SYAIFUL ARIEF, S.Pd",NULL,syaifularief@jurnal.plus,NULL,12345,,guru,NULL,,,L,guru
315,048,20539749,aan,"MOH AAN SULTON, S.SN",NULL,aan@jurnal.plus,NULL,12345,,guru,NULL,,,L,guru
316,049,20539749,agungpras,"AGUNG PRASETYO,S.Kom",NULL,agungpras@jurnal.plus,NULL,12345,,guru,NULL,,,L,guru
317,050,20539749,arifatuz,"ARIFATUZ ZAHRO, S.Pd",NULL,arifatuz@jurnal.plus,NULL,12345,,guru,NULL,,,P,guru
318,051,20539749,wina,WINA LESTARI.H,NULL,wina@jurnal.plus,NULL,12345,,guru,NULL,,,P,guru
319,052,20539749,satriyo.k,SATRIYO KURNIAWAN,NULL,satriyo.k@jurnal.plus,NULL,12345,,guru,NULL,,,L,guru
320,053,20539749,lexsy,LEXSY TRIAJI L. S.KOM,NULL,lexsy@jurnal.plus,NULL,12345,,guru,NULL,,,L,guru
321,054,20539749,aldilah,"ALDILAH RAHMA, S.SN",NULL,aldilah@jurnal.plus,NULL,12345,,guru,NULL,,,P,guru
322,055,20539749,ani,"ANI PUSPA RINI, M.PD",NULL,ani@jurnal.plus,NULL,12345,,guru,NULL,,,P,guru
323,056,20539749,aguszaqi,"AGUS ZAQI FIRMANSYAH, S.Pd",NULL,aguszaqi@jurnal.plus,NULL,12345,,guru,NULL,,,L,guru
324,057,20539749,agusnury,AGUS NURYANTO S.PD,NULL,agusnury@jurnal.plus,NULL,12345,,guru,NULL,,,L,guru
325,058,20539749,aditya,ADITYA SUKMA.W S.PD,NULL,aditya@jurnal.plus,NULL,12345,,guru,NULL,,,L,guru
326,059,20539749,yahya,MUH YAHYA SYAIFUDIN S.PD,NULL,yahya@jurnal.plus,NULL,12345,,guru,NULL,,,L,guru
327,060,20539749,dina,DINA CHARISMA G.P S.Pd,NULL,dina@jurnal.plus,NULL,12345,,guru,NULL,,,P,guru
328,061,20539749,merryna,MERRYNA RACHMAWATI S.Pd,NULL,merryna@jurnal.plus,NULL,12345,,guru,NULL,,,P,guru
329,064,20539749,misnari,Drs. MISNARI S.AG,NULL,misnari@jurnal.plus,NULL,12345,,guru,NULL,,,L,guru
330,065,20539749,elisa,ELISA MAHARANI S.Pd,NULL,elisa@jurnal.plus,NULL,12345,,guru,NULL,,,P,guru
331,066,20539749,faizatul,"FAIZATUL M. S.PSI, M.Si",NULL,faizatul@jurnal.plus,NULL,12345,,guru,NULL,,,P,guru
332,067,20539749,titis,"TITIS INDARI, S.PD",NULL,titis@jurnal.plus,NULL,12345,,guru,NULL,,,P,guru
333,068,20539749,farida,NUR FARIDA S.SN,NULL,farida@jurnal.plus,NULL,12345,,guru,NULL,,,P,guru
334,069,20539749,edi,DRs. EDI SUDARWANTO M.PD,NULL,edi@jurnal.plus,NULL,12345,,guru,NULL,,,L,guru
335,071,20539749,wahyu,MUHAMMAD WAHYU R S.PD,NULL,wahyu@jurnal.plus,NULL,12345,,guru,NULL,,,L,guru
336,072,20539749,novikasari,RUSTIYA NOVIKASARI U S.PD,NULL,novikasari@jurnal.plus,NULL,12345,,guru,NULL,,,P,guru
337,073,20539749,ulfa.rimi,RIDHOTUL ULFA S.PD,NULL,ulfa.rimi@jurnal.plus,NULL,12345,,guru,NULL,,,P,guru
338,074,20539749,soleh,M. SOLEH S.PDI,NULL,soleh@jurnal.plus,NULL,12345,,guru,NULL,,,L,guru
339,075,20539749,faslun,FASLUN NASUHAN M.PD,NULL,faslun@jurnal.plus,NULL,12345,,guru,NULL,,,L,guru
340,076,20539749,moch.satrio,MOCH. SATRIO S.PD,NULL,moch.satrio@jurnal.plus,NULL,12345,,guru,NULL,,,L,guru
341,077,20539749,maszainuri,"Maszainuri, S.Pd",NULL,maszainuri@jurnal.plus,NULL,12345,,guru,NULL,,,L,guru
342,078,20539749,dicke,DICKE MARITA A. S.PD,NULL,dicke@jurnal.plus,NULL,12345,,guru,NULL,,,P,guru
343,081,20539749,ardy,"Ardy Anggara Pratama Putra, S.Pd",NULL,ardy@jurnal.plus,NULL,12345,,guru,NULL,,,L,guru
344,89798888,20539749,guru8,Guru Delapan,NULL,guru8@jurnal.plus,NULL,12345,,guru,NULL,,,L,guru
345,196004061988032006,20539749,quarta,Dra. QUARTA RINA P,NULL,quarta@jurnal.plus,NULL,12345,,guru,NULL,,,P,guru
346,196107271985121002,20539749,darmadi,"DARMADI, S.Pd",NULL,darmadi@jurnal.plus,NULL,12345,,guru,NULL,,,L,guru
347,196109081983031022,20539749,sumarsono,Drs. SUMARSONO,NULL,sumarsono@jurnal.plus,NULL,12345,,guru,NULL,,,L,guru
348,196303101991031012,20539749,sumantri,SUMANTRI S.Pd,NULL,sumantri@jurnal.plus,NULL,12345,,guru,NULL,,,L,guru
349,196308161985012002,20539749,sriwati,SRIWATI S.Pd,NULL,sriwati@jurnal.plus,NULL,12345,,guru,NULL,,,P,guru
350,196310212008011002,20539749,bunyamin,Drs. BUNYAMIN,NULL,bunyamin@jurnal.plus,NULL,12345,,guru,NULL,,,L,guru
351,1.9640505199901E+17,20539749,aslikah,Dra. ASLIKAH,NULL,aslikah@jurnal.plus,NULL,12345,,katu,NULL,,,P,katu
352,196502071988032014,20539749,ida,"IDA PONAWATI, S.Pd",NULL,ida@jurnal.plus,NULL,12345,,guru,NULL,,,P,guru
353,196702201991031008,20539749,dwidjo,"DWIDJO LELONO,S.Pd.MMPd.",NULL,dwidjo@jurnal.plus,NULL,12345,,ks,NULL,,,L,ks
354,196707312005011001,20539749,choiril,Drs. ACH. CHOIRIL R.,NULL,choiril@jurnal.plus,NULL,12345,,guru,NULL,,,L,guru
355,196805292008011003,20539749,aziss.pd.,"ABDUL AZIS,S.Pd. M.Pd",NULL,aziss.pd.@jurnal.plus,NULL,12345,,guru,NULL,,,L,guru
356,196906231994011002,20539749,sutrisno,"SUTRISNO, S.Pd",NULL,sutrisno@jurnal.plus,NULL,12345,,guru,NULL,,,L,guru
357,197005062007012009,20539749,arlik,"ARLIK CHOLIFAH, S.Pd",NULL,arlik@jurnal.plus,NULL,12345,,guru,NULL,,,P,guru
358,197207141998022007,20539749,diyah,"DIYAH YUDHA T , S.Pd",NULL,diyah@jurnal.plus,NULL,12345,,guru,NULL,,,P,guru
359,197209172014071002,20539749,hedin,HEDIN HENDRATARTO S.T,NULL,hedin@jurnal.plus,NULL,12345,,guru,NULL,,,L,guru
360,197506182014072002,20539749,kastin,KASTIN S.Pd,NULL,kastin@jurnal.plus,NULL,12345,,guru,NULL,,,P,guru
361,197510182009032001,20539749,ika,"IKA WAHYU F ,S.Pd",NULL,ika@jurnal.plus,NULL,12345,,guru,NULL,,,P,guru
362,197512102010011008,20539749,sayit,"SAYIT ANWAR,S.Pd",NULL,sayit@jurnal.plus,NULL,12345,,guru,NULL,,,L,guru
363,197602012006041020,20539749,juwari,"JUWARI, M.Si",NULL,juwari@jurnal.plus,NULL,12345,,guru,NULL,,,L,guru
364,197611302014072001,20539749,devi,DEVI INDRA RINI S.Pd,NULL,devi@jurnal.plus,NULL,12345,,guru,NULL,,,P,guru
365,197804072005011007,20539749,ananto,"ANANTO WIDODO, S.Pd",NULL,ananto@jurnal.plus,NULL,12345,,guru,NULL,,,L,guru
366,197902192009032003,20539749,luki,LUKI EMILIYA H.  S.Pd,NULL,luki@jurnal.plus,NULL,12345,,guru,NULL,,,P,guru
367,197912202010012017,20539749,alif,"ALIF MASHUDA,S.Si",NULL,alif@jurnal.plus,NULL,12345,,guru,NULL,,,P,guru
368,198004032010011021,20539749,nanangw,"NANANG WAHYUDIANTO,S.Kom",NULL,nanangw@jurnal.plus,NULL,12345,,guru,NULL,,,L,guru
369,198004082010011016,20539749,henky,"HENKY KURNIA DANY,ST",NULL,henky@jurnal.plus,NULL,12345,,guru,NULL,,,L,guru
370,198209242010012017,20539749,laluk,"LALUK SUSMIATI,S.Pd",NULL,laluk@jurnal.plus,NULL,12345,,guru,NULL,,,P,guru
371,198212112014031001,20539749,kasihadi,"KASIHADI SUSANTO,S.Pd",NULL,kasihadi@jurnal.plus,NULL,12345,,guru,NULL,,,L,guru
372,198306242010011021,20539749,agung,"AGUNG BUDIANTO, S.Kom",NULL,agung@jurnal.plus,NULL,12345,,guru,NULL,,,L,guru
373,198309172009032004,20539749,ulmaftukha,"ULMAFTUKHA, S.Pd",NULL,ulmaftukha@jurnal.plus,NULL,12345,,guru,NULL,,,P,guru
374,198405252010011027,20539749,rizqi,"ARIEF RIZQIANSYAH,S.KOM",NULL,rizqi@jurnal.plus,NULL,12345,,guru,NULL,,,L,guru
375,198501142010012014,20539749,ima,"IMA KRISTINA, S.Pd",NULL,ima@jurnal.plus,NULL,12345,,guru,NULL,,,P,guru
376,198712292011012004,20539749,hida,"HIDAYATUL UMROH,S.Pd",NULL,hida@jurnal.plus,NULL,12345,,guru,NULL,,,P,guru
377,082,20539749,bagas,BAGAS EKO LAKSONO,NULL,bagas@jurnal.plus,NULL,12345,,guru,NULL,,,L,guru
378,083,20539749,fatchul,MUH FATCHUL MUBIN,NULL,fatchul@jurnal.plus,NULL,12345,,guru,NULL,,,L,guru
379,084,20539749,rohman,ROHMANUDIN,NULL,rohman@jurnal.plus,NULL,12345,,guru,NULL,,,L,guru
380,085,20539749,lifit,LIFITYANI,NULL,lifit@jurnal.plus,NULL,12345,,guru,NULL,,,P,guru
381,196110061984011002,20539749,zainuri,"ZAINURI, S.PD, M.PD ",NULL,zainuri@jurnal.plus,NULL,12345,,guru,NULL,,,L,guru
382,199101022014022002,20539749,rahajeng,"RAHAJENG KARTIKA SARI, S.Pd",NULL,rahajeng@jurnal.plus,NULL,12345,,guru,NULL,,,P,guru
383,199110032019031012,20539749,huda,"MUH. MIFTAKHUL HUDA, S.Pd",NULL,huda@jurnal.plus,NULL,12345,,guru,NULL,,,L,guru
384,199602222019031005,20539749,shodiq,"SHODIQ, S.Pd",NULL,shodiq@jurnal.plus,NULL,12345,,guru,NULL,,,L,guru
385,199212202019032016,20539749,zufida,"ZUFIDA KHARIROTUL UMMA, S.Pd",NULL,zufida@jurnal.plus,NULL,12345,,guru,NULL,,,P,guru
386,197204162014071001,20539749,ansory,"MOCHAMAD NURUL ANSORY, S.Pd",NULL,ansory@jurnal.plus,NULL,12345,,guru,NULL,,,L,guru
